{"type": "FeatureCollection", "features": [{"type": "Feature", "geometry": {"type": "Point", "coordinates": [168.333, -46.2128]}, "properties": {"id": 194630, "start": "2018-07-26T20:29:02Z", "end": "2018-07-26T20:40:14Z", "ground_station": 56, "transmitter": "yMufCB474YJ4YRdDepfMUk", "norad_cat_id": 25544, "payload": "https://network.satnogs.org/media/data_obs/194630/satnogs_194630_2018-07-26T20-29-02.ogg", "waterfall": "https://network.satnogs.org/media/data_obs/194630/waterfall_194630_2018-07-26T20-29-02.png", "demoddata": [], "station_name": "ZL4VBJ", "station_lat": -46.2128, "station_lng": 168.333, "vetted_status": "unknown", "client_version": "0.6.2", "client_metadata": "{\"latitude\": -46.2128, \"elevation\": 45.0, \"radio\": {\"bb_gain\": null, \"version\": \"1.3.0\", \"name\": \"gr-satnogs\", \"antenna\": null, \"ppm_error\": null, \"rx_dexvice\": \"rtlsdr\", \"if_gain\": null, \"rf_gain\": null}, \"longitude\": 168.333}"}}, {"type": "Feature", "geometry": {"type": "Point", "coordinates": [153.3152, -27.8635]}, "properties": {"id": 194650, "start": "2018-07-26T20:24:32Z", "end": "2018-07-26T20:34:04Z", "ground_station": 65, "transmitter": "yMufCB474YJ4YRdDepfMUk", "norad_cat_id": 25544, "payload": "https://network.satnogs.org/media/data_obs/194650/satnogs_194650_2018-07-26T20-24-32.ogg", "waterfall": "https://network.satnogs.org/media/data_obs/194650/waterfall_194650_2018-07-26T20-24-32.png", "demoddata": [], "station_name": "QG62", "station_lat": -27.8635, "station_lng": 153.3152, "vetted_status": "unknown", "client_version": "0.6.2", "client_metadata": "{\"latitude\": -27.8635, \"elevation\": 7.0, \"radio\": {\"bb_gain\": null, \"version\": \"1.3.0\", \"name\": \"gr-satnogs\", \"antenna\": null, \"ppm_error\": \"62\", \"rx_dexvice\": \"rtlsdr\", \"if_gain\": null, \"rf_gain\": \"14.4\"}, \"longitude\": 153.3152}"}}, {"type": "Feature", "geometry": {"type": "Point", "coordinates": [151.33, -33.62]}, "properties": {"id": 194631, "start": "2018-07-26T20:24:28Z", "end": "2018-07-26T20:35:17Z", "ground_station": 96, "transmitter": "yMufCB474YJ4YRdDepfMUk", "norad_cat_id": 25544, "payload": "https://network.satnogs.org/media/data_obs/194631/satnogs_194631_2018-07-26T20-24-28.ogg", "waterfall": "https://network.satnogs.org/media/data_obs/194631/waterfall_194631_2018-07-26T20-24-28.png", "demoddata": [], "station_name": "sam210723 VHF", "station_lat": -33.62, "station_lng": 151.33, "vetted_status": "good", "client_version": "0.6.1", "client_metadata": "{\"latitude\": -33.62, \"elevation\": 10.0, \"radio\": {\"bb_gain\": null, \"version\": \"1.3.0\", \"name\": \"gr-satnogs\", \"antenna\": null, \"ppm_error\": null, \"rx_dexvice\": \"rtlsdr\", \"if_gain\": null, \"rf_gain\": null}, \"longitude\": 151.33}"}}, {"type": "Feature", "geometry": {"type": "Point", "coordinates": [138.6949, -34.8463]}, "properties": {"id": 194628, "start": "2018-07-26T20:22:28Z", "end": "2018-07-26T20:33:31Z", "ground_station": 15, "transmitter": "yMufCB474YJ4YRdDepfMUk", "norad_cat_id": 25544, "payload": "https://network.satnogs.org/media/data_obs/194628/satnogs_194628_2018-07-26T20-22-28.ogg", "waterfall": "https://network.satnogs.org/media/data_obs/194628/waterfall_194628_2018-07-26T20-22-28.png", "demoddata": [], "station_name": "VK5QI-2M", "station_lat": -34.8463, "station_lng": 138.6949, "vetted_status": "unknown", "client_version": "0.6.1", "client_metadata": "{\"latitude\": -34.8474, \"elevation\": 70.0, \"radio\": {\"bb_gain\": null, \"version\": \"1.3.0\", \"name\": \"gr-satnogs\", \"antenna\": null, \"ppm_error\": null, \"rx_dexvice\": \"rtlsdr\", \"if_gain\": null, \"rf_gain\": \"20\"}, \"longitude\": 138.6951}"}}, {"type": "Feature", "geometry": {"type": "Point", "coordinates": [115.988, -32.066]}, "properties": {"id": 194629, "start": "2018-07-26T20:20:30Z", "end": "2018-07-26T20:27:58Z", "ground_station": 23, "transmitter": "yMufCB474YJ4YRdDepfMUk", "norad_cat_id": 25544, "payload": "https://network.satnogs.org/media/data_obs/194629/satnogs_194629_2018-07-26T20-20-30.ogg", "waterfall": "https://network.satnogs.org/media/data_obs/194629/waterfall_194629_2018-07-26T20-20-30.png", "demoddata": [], "station_name": "Zath-VHF", "station_lat": -32.066, "station_lng": 115.988, "vetted_status": "good", "client_version": "0.6.2", "client_metadata": "{\"latitude\": -32.066, \"elevation\": 6.0, \"radio\": {\"bb_gain\": null, \"version\": \"1.3.0\", \"name\": \"gr-satnogs\", \"antenna\": null, \"ppm_error\": \"0\", \"rx_dexvice\": \"rtlsdr\", \"if_gain\": null, \"rf_gain\": \"25.4\"}, \"longitude\": 115.988}"}}, {"type": "Feature", "geometry":
{"type": "LineString",
"coordinates":
[[120.97723948499296,
 -11.833830369160474],
 [121.87469902117596,
 -13.016773883403431],
 [122.78166618068362,
 -14.195817359630311],
 [123.69911085037806,
 -15.370556962906436],
 [124.62803023787814,
 -16.54057519791879],
 [125.569435211181,
 -17.705436640107784],
 [126.52437761941881,
 -18.864693912082785],
 [127.49393663248047,
 -20.017875730791058],
 [128.47920508063314,
 -21.164493737706948],
 [129.48134409603577,
 -22.304033961095413],
 [130.5015148108472,
 -23.4359619386539],
 [131.54093299873975,
 -24.559715887323172],
 [132.60084175414232,
 -25.674704995740026],
 [133.6825251526189,
 -26.78030942423728],
 [134.7873219112468,
 -27.8758785972965],
 [135.9165844074817,
 -28.9607226658115],
 [137.07170599991426,
 -30.034117629730268],
 [138.2541210282702,
 -31.09530363050764],
 [139.4653048134102,
 -32.143471290726964],
 [140.7067463365734,
 -33.17777366693117],
 [141.9799755601338,
 -34.197319419433555],
 [143.28652244646554,
 -35.20115573684492],
 [144.6279579390777,
 -36.18829565683018],
 [146.00583932110104,
 -37.15768733025716],
 [147.42169655490966,
 -38.10822768157491],
 [148.87708692363432,
 -39.03875899371911],
 [150.37348574813575,
 -39.948062077922906],
 [151.91232736813961,
 -40.83485968881151],
 [153.49499148185828,
 -41.69782335459136],
 [155.1227211837207,
 -42.535563131766345],
 [156.79666394550745,
 -43.34663102023244],
 [158.51778965408062,
 -44.129531208561396],
 [160.28689061138394,
 -44.882723489095376],
 [162.1045268929294,
 -45.604613012663194],
 [163.97099902704045,
 -46.29358102443155],
 [165.88627969296041,
 -46.947981448810474],
 [167.8500683623658,
 -47.56614771964248],
 [169.86160005406956,
 -48.146420100959254],
 [171.9197682774262,
 -48.68714227188707],
 [174.02298842854822,
 -49.18668864740346],
 [176.16921145068463,
 -49.643488283999325],
 [178.35591017384257,
 -50.05602829477351]]},
 "properties": {"norad_cat_id": 25544,
 "name": "ISS",
 "names": "ZARYA",
 "image": "https://db.satnogs.org/media/satellites/ISS.jpg",
 "status": "alive",
 "start": "2018-07-26T20:20:30Z",
 "end": "2018-07-26T20:40:14Z"}}]}
